{
  "version": "1.0.0-*",
  "description": "Sentimetro.Ioc Class Library",
  "authors": [ "etorr" ],
  "tags": [ "" ],
  "projectUrl": "",
  "licenseUrl": "",
  "dependencies": {
    "Microsoft.Extensions.DependencyInjection": "1.0.0-rc1-final",
    "Sentimetro.Context": "1.0.0-*",
    "Sentimetro.Dominio": "1.0.0-*",
    "Sentimetro.IContext": "1.0.0-*",
    "Sentimetro.IDominio": "1.0.0-*",
    "Sentimetro.IRepository": "1.0.0-*",
    "Sentimetro.IService": "1.0.0-*",
    "Sentimetro.Repository": "1.0.0-*",
    "Sentimetro.Service": "1.0.0-*"
  },
  "frameworks": {
    "net451": { },
    "dotnet5.4": {
      "dependencies": {
        "Microsoft.CSharp": "4.0.1-beta-23516",
        "System.Collections": "4.0.11-beta-23516",
        "System.Linq": "4.0.1-beta-23516",
        "System.Runtime": "4.0.21-beta-23516",
        "System.Threading": "4.0.11-beta-23516"
      }
    }
  }
}
