{
  "version": "1.0.0-*",
  "description": "Sentimetro.IContext Class Library",
  "authors": [ "Eric" ],
  "tags": [ "" ],
  "projectUrl": "",
  "licenseUrl": "",

  "frameworks": {
    "net451": {
      "dependencies": {
        "MongoDB.Driver": "2.2.3"
      }
    },
    "dotnet5.4": {
      "dependencies": {
        "Microsoft.CSharp": "4.0.1-beta-23516",
        "System.Collections": "4.0.11-beta-23516",
        "System.Linq": "4.0.1-beta-23516",
        "System.Runtime": "4.0.21-beta-23516",
        "System.Threading": "4.0.11-beta-23516"
      }
    }
  }
}
