{
  "version": "1.0.0-*",
  "compilationOptions": {
    "emitEntryPoint": true
  },

  "dependencies": {
    "Microsoft.AspNet.Diagnostics": "1.0.0-rc1-final",
    "Microsoft.AspNet.IISPlatformHandler": "1.0.0-rc1-final",
    "Microsoft.AspNet.Mvc": "6.0.0-rc1-final",
    "Microsoft.AspNet.Server.Kestrel": "1.0.0-rc1-final",
    "Microsoft.Extensions.Configuration.FileProviderExtensions": "1.0.0-rc1-final",
    "Microsoft.Extensions.Configuration.UserSecrets": "1.0.0-rc1-final",
    "SecretManager": "1.0.0-beta5",
    "Sentimetro.Entities": "1.0.0-*",
    "Sentimetro.Ioc": "1.0.0-*",
    "Sentimetro.IService": "1.0.0-*"
  },

  "commands": {
    "web": "Microsoft.AspNet.Server.Kestrel",
    "user-secret": "SecretManager"
  },

  "frameworks": {
    "dnx451": { },
    "dnxcore50": { }
  },

  "exclude": [
    "wwwroot",
    "node_modules"
  ],
  "publishExclude": [
    "**.user",
    "**.vspscc"
  ],

  "userSecretsId": "Sentimetro.Api1-f7fd3f56-2899-4eea-a88e-673d24bd7090"
}
